[
  {
    "items": {
      "item": [
        {
          "name": "",
          "icon": "",
          "url": {
            "url": "",
            "internal": true,
            "params": { "items": ["", ""] }
          },
          "action": { "name": "", "params": { "items": ["", ""] } },
          "notification": true
        }
      ]
    }
  }
]
