<?xml version="1.0" encoding="utf-8"?>
<!-- Generator: Adobe Illustrator 22.1.0, SVG Export Plug-In . SVG Version: 6.00 Build 0)  -->
<svg version="1.1" id="Capa_1" xmlns="http://www.w3.org/2000/svg" xmlns:xlink="http://www.w3.org/1999/xlink" x="0px" y="0px"
	 viewBox="0 0 202.4 202.3" style="enable-background:new 0 0 202.4 202.3;" xml:space="preserve">
<style type="text/css">
	.st0{clip-path:url(#SVGID_2_);}
	.st1{fill:#FFFFFF;}
	.st2{fill:#02704A;}
</style>
<title>logo_login_stbx</title>
<g>
	<defs>
		<rect id="SVGID_1_" x="0" y="0" width="202.3" height="202.3"/>
	</defs>
	<clipPath id="SVGID_2_">
		<use xlink:href="#SVGID_1_"  style="overflow:visible;"/>
	</clipPath>
	<g class="st0">
		<path class="st1" d="M202.3,101.2c0,55.9-45.3,101.2-101.1,101.2S0,157.1,0,101.2S45.3,0,101.1,0c0,0,0,0,0,0
			C157,0,202.3,45.3,202.3,101.2"/>
		<path class="st2" d="M111.3,43.8c-6.7-1.2-13.6-1.2-20.4,0c-0.5,0.1-0.7-0.4-0.3-0.7l10.5-8l10.5,8
			C112,43.3,111.8,43.8,111.3,43.8 M93.8,93.8c-0.3,0.1-0.6,0.4-0.7,0.7c2.1,1.6,3.6,5.3,8,5.3s5.9-3.7,8-5.3
			c-0.1-0.3-0.4-0.6-0.7-0.7C103.6,94.7,98.6,94.7,93.8,93.8 M101.1,87.6c-1.2,0-1.5-0.5-2.3-0.5c-1,0.1-2,0.5-2.7,1.2
			c0,0.3,0.1,0.6,0.4,0.8c1.8,0.3,2.6,1.3,4.7,1.3s2.9-1,4.7-1.3c0.2-0.2,0.3-0.5,0.3-0.8c-0.7-0.7-1.7-1.2-2.7-1.2
			C102.6,87.1,102.4,87.6,101.1,87.6 M202.1,106.7c-0.1,2.4-0.3,4.8-0.6,7.2c-11.4,1.9-15.5-8.3-27.3-7.8c0.7,2.5,1.3,5,1.7,7.6
			c9.7,0,13.6,9,24.3,7.7c-0.6,2.8-1.2,5.5-2,8.2c-8.5,0.8-11.5-7.6-21.4-7.4c0.1,1.4,0.1,2.8,0.1,4.2c0,0.8,0,1.6,0,2.4
			c8.4-0.1,11.1,7.7,19.1,7.3c-1,2.7-2.1,5.4-3.3,8c-5.8-0.3-7.7-7.7-16.5-7.1c-0.3,1.9-0.6,3.8-1,5.6c7.6-0.5,9.2,6.5,14.7,7
			c-1.4,2.5-2.9,5-4.5,7.4c-3.2-1.7-6-6.9-12.1-7.3c0.6-1.9,1.2-3.9,1.6-5.9c-6.3-0.1-12.3-2.6-16.8-6.9
			c1.7-9.6-13.2-19.4-13.2-26.4c0-7.6,3.9-11.9,3.9-22.2c0-7.6-3.7-15.9-9.3-21.6c-1-1.1-2.2-2-3.5-2.8c5.1,6.4,9.1,13.9,9.1,22.6
			c0,9.7-4.5,14.8-4.5,23.8s13.1,16.7,13.1,25.9c0,3.6-1.2,7.2-5,14.1c5.9,5.9,13.5,9.1,18.5,9.1c1.3,0.2,2.5-0.6,3-1.8
			c0.5-1.1,1-2.2,1.4-3.3c5.3,0.2,7.8,5,10.7,7c-1.6,2.2-3.3,4.3-5.1,6.3c-2-2.2-4.6-5.9-8.5-6.9c-0.7,1.3-1.4,2.7-2.2,4
			c3.3,0.9,5.6,4.3,7.4,6.5c-1.9,2-3.9,3.9-6,5.7c-1.4-2.3-3.3-4.4-5.6-5.9c-0.8,1.1-1.7,2.2-2.6,3.3c1.9,1.5,3.5,3.4,4.7,5.5
			c-2.4,1.9-4.9,3.7-7.4,5.4c-1.3-10.3-15.3-17.3-11.5-29.2c-1.2,2.1-2.7,4.7-2.7,7.9c0,8.6,9.2,15.5,9.9,24
			c-1.9,1.1-3.9,2.2-5.8,3.2c-0.3-9.4-10.1-19.7-10.1-27.5c0-8.6,11.3-17.3,11.3-27.5s-13.1-17.3-13.1-26.2s5.6-14.1,5.6-25.6
			c-0.1-8.5-3.8-16.6-10.1-22.3c-1-0.9-2.2-1.8-3.5-2.4c5.8,7,9.2,13.3,9.2,22.9c0,10.8-6.4,16.8-6.4,27.3s12.8,16.4,12.8,26.3
			s-11.9,18.1-11.9,28.3c0,9.2,10.5,18.4,10.7,29.3c-2.3,1-4.6,1.9-7,2.8c1.3-11-10.5-22.4-10.5-31.4c0-9.8,12.4-18.3,12.4-28.9
			s-12.6-15.6-12.6-26.4s7.7-16.9,7.7-28.9c-0.1-9-4.3-17.5-11.4-23l-0.4-0.3c-0.6-0.5-1.2,0.1-0.7,0.7c5,5.8,7.6,13.3,7.4,21
			c0,11-8.9,20-8.9,30.6c0,12.6,11.9,16.2,11.9,26.5S116.6,155,116.6,166c0,10.2,12.1,21.4,10,33.2c-2.4,0.6-4.9,1.2-7.4,1.6
			c2.3-14.6-9.6-25.1-9.6-34.6c0-10.4,13.2-19.6,13.2-29.7c0-9.5-9.5-12.6-10.7-22.4c-0.1-1.3-1.2-2.2-2.4-2.1c-0.1,0-0.2,0-0.3,0
			c-1.9,0.3-4.4,1.6-8.3,1.6s-6.4-1.3-8.3-1.6c-1.2-0.2-2.4,0.6-2.7,1.8c0,0.1,0,0.2,0,0.3c-1.2,9.8-10.7,12.9-10.7,22.4
			c0,10.1,13.2,19.3,13.2,29.7c0,9.6-11.8,20-9.6,34.6c-2.5-0.4-4.9-1-7.4-1.6c-2.1-11.7,10-23,10-33.2c0-11-12.8-19.2-12.8-29.5
			s11.9-13.9,11.9-26.5c0-10.7-8.9-19.6-8.9-30.6c-0.2-7.7,2.4-15.2,7.4-21c0.4-0.6-0.1-1.1-0.7-0.7L82.2,58
			c-7.1,5.5-11.3,14-11.4,23c0,12,7.7,18.1,7.7,28.9S66,125.7,66,136.4s12.3,19.1,12.3,28.9c0,9-11.8,20.4-10.5,31.4
			c-2.4-0.8-4.7-1.7-7-2.8c0.2-10.9,10.7-20.1,10.7-29.3c0-10.1-11.9-18.4-11.9-28.3s12.8-15.7,12.8-26.3S66,93.6,66,82.8
			c0-9.6,3.4-15.9,9.2-22.9c-1.2,0.7-2.4,1.5-3.4,2.4c-6.4,5.7-10,13.8-10.2,22.3c0,11.5,5.6,16.6,5.6,25.6s-13,16-13,26.2
			s11.3,18.9,11.3,27.5c0,7.7-9.7,18.1-10.1,27.5c-2-1-3.9-2.1-5.8-3.2c0.7-8.6,9.9-15.4,9.9-24c0-3.2-1.5-5.8-2.7-7.9
			c3.8,11.9-10.2,19-11.5,29.2c-2.6-1.7-5-3.5-7.4-5.4c1.2-2.2,2.8-4,4.7-5.5c-0.9-1.1-1.8-2.2-2.6-3.3c-2.2,1.6-4.1,3.6-5.6,5.9
			c-2.1-1.8-4-3.7-6-5.7c1.8-2.2,4-5.6,7.4-6.5c-0.8-1.3-1.5-2.6-2.2-4c-3.9,1-6.5,4.7-8.5,6.9c-1.8-2-3.5-4.1-5.1-6.3
			c2.9-1.9,5.4-6.8,10.7-7c0.4,1.1,0.9,2.2,1.4,3.3c0.5,1.2,1.7,1.9,3,1.8c4.9,0,12.6-3.2,18.5-9.1c-3.8-7-5-10.5-5-14.1
			c0-9.2,13.1-17,13.1-25.9s-4.5-14.1-4.5-23.8c0-8.7,4-16.3,9.1-22.6c-1.3,0.8-2.4,1.7-3.5,2.8c-5.6,5.7-9.3,13.9-9.3,21.6
			c0,10.3,3.9,14.5,3.9,22.2c0,7-14.9,16.8-13.2,26.4c-4.5,4.3-10.5,6.7-16.7,6.9c0.5,2,1,4,1.6,5.9c-6.1,0.3-8.9,5.5-12.1,7.3
			c-1.6-2.4-3.1-4.9-4.5-7.4c5.4-0.6,7.1-7.6,14.7-7c-0.4-1.8-0.7-3.7-1-5.6c-8.7-0.6-10.7,6.8-16.5,7.1c-1.2-2.6-2.3-5.3-3.3-8
			c8,0.4,10.7-7.4,19.1-7.3c0-0.8,0-1.6,0-2.4c0-1.4,0-2.8,0.1-4.2c-9.8-0.2-12.8,8.2-21.3,7.4c-0.8-2.7-1.5-5.4-2-8.2
			c10.8,1.3,14.7-7.7,24.3-7.7c0.4-2.6,1-5.1,1.7-7.6c-11.7-0.5-15.8,9.7-27.3,7.8c-0.3-2.4-0.5-4.8-0.7-7.2
			c13.3,1.5,18.3-9.5,30.4-8.1c1.1-2.9,2.5-5.7,4-8.4c-15.2-2.7-20.3,10-34.5,8.1C1.7,42.5,48.3-1.5,104.1,0
			c53.6,1.5,96.8,44.6,98.3,98.3c-14.1,2-19.3-10.8-34.5-8.1c1.5,2.7,2.9,5.5,4,8.4c12.1-1.3,17.1,9.6,30.4,8.1 M57.7,64.3
			c-8-3.1-17-2.1-24.2,2.6c-1.1-7-4.9-13.2-10.6-17.4c-0.4-0.3-1-0.3-1.3,0.1c-0.2,0.2-0.3,0.5-0.2,0.8c1.2,15.1-7.7,28.3-18.6,39.8
			c11.2,3.4,20.8-11.1,35.3-6C43.4,76.5,50,69.7,57.7,64.3 M101.2,55.2c-9.4,0-17.3,5.3-19.3,12.2c-0.2,0.5,0.1,0.9,0.7,0.6
			c1.8-0.8,3.7-1.2,5.7-1.1c3.5-0.2,6.9,1.3,9.2,3.8c0.9,2.9,1,7.1,0,9.5c-1.6-0.3-2.1-1.6-3.7-1.6s-2.7,1.1-5.3,1.1
			s-2.9-1.2-4.6-1.2c-2,0-2.4,2.1-2.4,4.4c0,10.5,9.6,24.9,19.9,24.9s19.8-14.4,19.8-24.9c0-2.3-0.5-4.3-2.6-4.6
			c-1.2,1-2.8,1.5-4.4,1.4c-2.6,0-3.3-1.1-4.9-1.1c-1.9,0-1.7,3.9-3.9,4.1c-1.5-3.9-1.6-8.1-0.3-12.1c2.3-2.6,5.7-4,9.2-3.8
			c2,0,3.9,0.4,5.7,1.1c0.6,0.3,0.8-0.1,0.7-0.6C118.5,60.5,110.6,55.2,101.2,55.2 M116.2,70.2c-2.4-0.1-4.8,0.8-6.6,2.5
			c-0.2,0.6-0.2,1.2,0.1,1.8c4.1-1.4,7.7-1.4,9.4,0.5c0.8-0.6,1.2-1.5,1.2-2.5C120.3,71.1,118.9,70.2,116.2,70.2 M83.3,75
			c2-2,6.1-1.9,10.4-0.3c0.2-2.2-3.6-4.5-7.5-4.5c-2.8,0-4.2,0.9-4.2,2.3C82.1,73.5,82.5,74.4,83.3,75 M148,39.6
			c-7,0.4-13.6,3-19.1,7.3c2.1-6,5-11.8,8.6-17.1c-9.4,1-17.3,4.4-23.1,10.3L110,28.3l10-8.8l-13.4-0.9l-5.3-12.5l-5.4,12.4
			l-13.4,0.9l10,8.8l-4.5,11.8c-5.8-5.9-13.6-9.3-23.1-10.3c3.6,5.3,6.5,11,8.6,17.1c-5.4-4.4-12.1-6.9-19.1-7.3
			c4.5,5.6,8.3,11.8,11.3,18.4c0.2,0.6,1,1,1.6,0.7c0.1,0,0.2-0.1,0.2-0.1c21.2-10.5,46.2-10.5,67.4,0c0.6,0.4,1.3,0.2,1.7-0.4
			c0-0.1,0.1-0.1,0.1-0.2C139.7,51.3,143.5,45.2,148,39.6 M164.1,84.2c14.6-5,24.1,9.4,35.3,6c-10.9-11.6-19.7-24.7-18.6-39.8
			c0.1-0.5-0.2-1-0.7-1.1c-0.3-0.1-0.6,0-0.8,0.2c-5.7,4.1-9.5,10.4-10.6,17.4c-7.1-4.8-16.2-5.7-24.2-2.6
			C152.3,69.7,158.9,76.4,164.1,84.2"/>
		<polygon class="st1" points="155.9,198.9 155.2,198.9 155.2,194.7 153.7,194.7 153.7,194.1 157.4,194.1 157.4,194.7 155.9,194.7 
					"/>
		<polygon class="st1" points="160.6,197.8 160.6,197.8 162,194.1 163.1,194.1 163.1,198.9 162.4,198.9 162.4,194.9 162.4,194.9 
			160.8,198.9 160.4,198.9 158.8,194.9 158.7,194.9 158.7,198.9 158.1,198.9 158.1,194.1 159.1,194.1 		"/>
	</g>
</g>
</svg>
