{
  "header": {
    "color": "red",
    "image_background": "../assets/img/bg-head-circle-stbk.png",
    "image": "",
    "profile_name": "Eduardo"
  },
  "items": [
    {
      "name": "INICIO",
      "icon": "ios-home",
      "notification": true,
      "url": {
        "url": "home",
        "internal": true,
        "params": { "items": ["", ""] }
      },
      "action": { "name": "", "params": { "items": ["", ""] } }
    },
    {
      "name": "BENEFICIOS",
      "icon": "ios-information-circle",
      "notification": false,
      "url": {
        "url": "beneficios",
        "internal": true,
        "params": { "items": ["", ""] }
      },
      "action": { "name": "", "params": { "items": ["", ""] } }
    },
    {
      "name": "VIDEOS",
      "icon": "logo-youtube",
      "notification": false,
      "url": {
        "url": "http://capacitor.ionicframework.com/",
        "internal": false,
        "params": { "items": ["", ""] }
      },
      "action": { "name": "", "params": { "items": ["", ""] } }
    }
  ]
}
